{
  "status": "success",
  "paginate": {
    "current_page": 1,
    "total_page": 3205,
    "total_items": 32047,
    "items_per_page": 10
  },
  "items": [
    {
      "name": "Maou no Musume wa Yasashisugiru!!",
      "slug": "maou-no-musume-wa-yasashisugiru",
      "original_name": "The Demon King's Daughter Is Too Kind!!",
      "thumb_url": "https://phim.nguonc.com/public/images/Post/2/maou-no-musume-wa-yasashisugiru.jpg",
      "poster_url": "https://phim.nguonc.com/public/images/Post/2/maou-no-musume-wa-yasashisugiru-1.jpg",
      "created": "2026-01-06T15:26:42.000000Z",
      "modified": "2026-02-17T17:38:54.000000Z",
      "description": "Câu chuyện xoay quanh Dou, con gái nhỏ của Ma Vương Ariman hùng mạnh, người luôn khao khát trở thành một kẻ ác đáng sợ giống cha mình nhưng lại thất bại thảm hại vì bản tính quá ngây thơ và thánh thiện. Mọi nỗ lực thực hiện \"tội ác\" của Dou đều vô tình biến thành những việc làm tốt bụng giúp đỡ mọi người, tạo nên những tình huống dở khóc dở cười khi Ma Vương Ariman, bề ngoài là kẻ tàn độc nhưng bên trong là một ông bố \"cuồng con\", luôn phải vất vả kìm nén để không bị \"hạ gục\" bởi sự đáng yêu quá mức của con gái mình.",
      "total_episodes": 12,
      "current_episode": "Tập 8",
      "time": "23 phút/tập",
      "quality": "HD",
      "language": "Vietsub",
      "director": "Oota Masahiko",
      "casts": null
    },
    {
      "name": "Đường Cung Kỳ Án: Thanh Vụ Phong Minh",
      "slug": "duong-cung-ky-an-thanh-vu-phong-minh",
      "original_name": "Unveil: Jadewind",
      "thumb_url": "https://phim.nguonc.com/public/images/Post/2/duong-cung-ky-an-thanh-vu-phong-minh.jpg",
      "poster_url": "https://phim.nguonc.com/public/images/Post/2/duong-cung-ky-an-thanh-vu-phong-minh-1.jpg",
      "created": "2026-02-05T12:35:49.000000Z",
      "modified": "2026-02-17T17:12:40.000000Z",
      "description": "Giữa yến tiệc linh đình đêm Nguyên Tiêu, công chúa Ninh Viễn bất ngờ qua đời một cách bí ẩn. Huyện chúa Phúc Xương Lý Bội Nghi cùng thái sử thừa Tiêu Hoài Cẩn của Thái Sử Cục nhận lệnh điều tra vụ án. Lý Bội Nghi võ nghệ xuất chúng, giỏi nhìn thấu lòng người, bề ngoài lạnh lùng nhưng tấm lòng lương thiện, quyết mò theo từng dấu vết để tìm ra sự thật. Sát cánh cùng nàng là Tiêu Hoài Cẩn, người có tư duy chặt chẽ và trí nhớ hơn người. Nhờ sự phối hợp ăn ý, cả hai lần theo từng manh mối, vượt qua sự cản trở của tiểu thư gia tộc quyền quý ngang ngược và vị lang tướng Vũ Lâm thuộc Kim Ngô Vệ mang trong mình nhiều bí mật, cuối cùng vén màn chân tướng, tìm ra hung thủ thực sự. Từ đó, hai người tiếp tục cùng nhau phá giải hàng loạt vụ án ly kỳ, rối ren, những “thâm cung bí sử” nối tiếp nhau không dứt ở chốn hậu cung Đại Đường. Qua từng vụ án gắn liền với số phận của các nữ nhân trong hậu cung, Lý Bội Nghi và Tiêu Hoài Cẩn không chỉ khám phá những góc khuất kỳ lạ của Đại Đường, cảm nhận muôn vẻ tình đời, mà còn dần làm sáng tỏ chân tướng phía sau thảm án diệt môn Lý gia mười lăm năm trước, vạch trần âm mưu của kẻ đứng sau. Lý Bội Nghi minh oan cho phụ thân, đồng thời trong hành trình truy tìm sự thật ấy, nàng còn gặp được người đồng hành kề vai sát cánh, gây dựng mối gắn kết sâu sắc, cùng nhau chữa lành và cứu rỗi lẫn nhau.",
      "total_episodes": 34,
      "current_episode": "Tập 26",
      "time": "45 Phút/Tập",
      "quality": "HD",
      "language": "Vietsub + Thuyết Minh",
      "director": "Yin Tao",
      "casts": "Bạch Lộc, Vương Tinh Việt, Diêu An Na, Triệu Tình"
    },
    {
      "name": "Trái Tim Của Yiwha: Tình Yêu Và Báo Thù",
      "slug": "trai-tim-cua-yiwha-tinh-yeu-va-bao-thu",
      "original_name": "The Heart Of Yiwha: Of Love & Vengeance",
      "thumb_url": "https://phim.nguonc.com/public/images/Post/5/trai-tim-cua-yiwha-tinh-yeu-va-bao-thu.jpg",
      "poster_url": "https://phim.nguonc.com/public/images/Post/5/trai-tim-cua-yiwha-tinh-yeu-va-bao-thu-1.jpg",
      "created": "2026-01-14T03:20:27.000000Z",
      "modified": "2026-02-17T17:12:20.000000Z",
      "description": "Sau khi bọn cướp sát hại cả gia đình, chiến binh trẻ tuổi nọ tìm cách trả thù bằng hắc thuật – nhưng rồi cô con gái quyến rũ của kẻ thù lại khiến hành trình ấy trở nên rối rắm.",
      "total_episodes": 23,
      "current_episode": "Tập 12",
      "time": "57 phút/tập",
      "quality": "HD",
      "language": "Vietsub",
      "director": null,
      "casts": "Nawasch Phupantachsee, Amanda Chalisa Obdam, Chanathip Phothongkam"
    },
    {
      "name": "Nếm Hương Đào Mọng",
      "slug": "nem-huong-dao-mong",
      "original_name": "Peach Lover",
      "thumb_url": "https://phim.nguonc.com/public/images/Post/7/nem-huong-dao-mong.jpg",
      "poster_url": "https://phim.nguonc.com/public/images/Post/7/nem-huong-dao-mong-1.jpg",
      "created": "2026-01-20T15:17:49.000000Z",
      "modified": "2026-02-17T17:11:42.000000Z",
      "description": "Sự trở lại được mong chờ từ lâu của “Peach Lover”, chủ nhân huyền thoại của một tài khoản gợi cảm 18+ cực kỳ nổi tiếng, sau một năm vắng bóng, đã khiến trái tim người hâm mộ lại một lần nữa đập loạn nhịp, đặc biệt là Po, một fan trung thành đã say mê anh suốt nhiều năm. Lần này, Peach Lover trở lại với một thông báo quan trọng: tìm kiếm một “quả đào” hoàn toàn mới, một người mà anh có thể thưởng thức tươi ngon, ngọt ngào và mọng nước trước ống kính. Người hâm mộ cuồng nhiệt không do dự một giây nào, nộp đơn ứng tuyển với tốc độ như chớp. Cuối cùng, anh cũng có cơ hội được nhìn thấy khuôn mặt của người mà anh hằng mơ ước, dù chỉ là bạn tình tại nơi làm việc. Nhưng ai ngờ… dù đã tập dượt vô số lần trên giường, họ chưa bao giờ thực sự bước lên sân khấu thực sự cùng nhau. Thay vào đó, việc hiểu rõ con người thật của nhau đã kéo họ lại gần nhau hơn cả mong đợi, gần gũi đến mức họ khó lòng xa nhau. Khi nào mối quan hệ này cuối cùng sẽ được làm rõ? Hay họ định mệnh chỉ mãi là đồng nghiệp?",
      "total_episodes": 10,
      "current_episode": "Tập 5",
      "time": "50 phút/tập",
      "quality": "HD",
      "language": "Vietsub",
      "director": "Cheewin Thanamin Wongskulphat",
      "casts": "Ki Niwat Naknuan, Poom Nuttapart Tuntistianchai, Film Panurat Panyafu, Vin Tanapon Aukavongseree"
    },
    {
      "name": "Đoàn tụ: Sự thật thầm lặng",
      "slug": "doan-tu-su-that-tham-lang",
      "original_name": "Saikai: Silent Truth",
      "thumb_url": "https://phim.nguonc.com/public/images/Post/5/doan-tu-su-that-tham-lang.jpg",
      "poster_url": "https://phim.nguonc.com/public/images/Post/5/doan-tu-su-that-tham-lang-1.jpg",
      "created": "2026-01-13T15:45:16.000000Z",
      "modified": "2026-02-17T17:11:33.000000Z",
      "description": "Trở về quê nhà điều tra một vụ án mạng, thám tử nọ phát hiện những mối liên hệ chấn động giữa chính mình với nghi phạm chính và hung khí.",
      "total_episodes": 10,
      "current_episode": "Tập 6",
      "time": "48 phút/tập",
      "quality": "HD",
      "language": "Vietsub",
      "director": "Yoshihiro Fukagawa, Daisuke Yamamoto",
      "casts": "Takeuchi Ryoma, Mao Inoue, Seto Koji"
    },
    {
      "name": "Danh Dự Cuối Cùng",
      "slug": "danh-du-cuoi-cung",
      "original_name": "Honour",
      "thumb_url": "https://phim.nguonc.com/public/images/Post/2/danh-du-cuoi-cung.jpg",
      "poster_url": "https://phim.nguonc.com/public/images/Post/2/danh-du-cuoi-cung-1.jpg",
      "created": "2026-02-02T15:25:53.000000Z",
      "modified": "2026-02-17T17:10:55.000000Z",
      "description": "Danh Dự Cuối Cùng (Honour) xoay quanh ba nữ luật sư Yun Ra Yeong, Kang Sin Jae và Hwang Hyeon Jin. Quen nhau từ thời đại học, họ là bạn bè thân thiết suốt 20 năm và hiện đang cùng làm việc ở công ty luật L&J, chuyên bảo vệ những nạn nhân nữ trong các vụ án hình sự. Ngoài việc có cùng mục tiêu trong sự nghiệp, chất keo gắn kết tình bạn của ba người còn bao gồm một bí mật từ 20 năm trước mà họ không thể thổ lộ với ai. Khi bí mật này có nguy cơ bị bại lộ và làm đảo lộn cuộc sống của họ, ba người bạn quyết tâm phản kháng đến cùng, thể hiện sự đoàn kết và ý chí kiên cường không gì có thể phá vỡ.",
      "total_episodes": 12,
      "current_episode": "Tập 6",
      "time": "60 Phút/Tập",
      "quality": "HD",
      "language": "Vietsub + Thuyết Minh",
      "director": "Park Geon Ho",
      "casts": "Choi Young Joon, Jung Eun Chae, Lee Chung Ah, Lee Na Young, Seo Hyeon Woo, Yeon Woo Jin"
    },
    {
      "name": "Cửu Dương Võ Thần",
      "slug": "cuu-duong-vo-than",
      "original_name": "Ascendants of the Nine Suns",
      "thumb_url": "https://phim.nguonc.com/public/images/Post/4/cuu-duong-vo-than.jpg",
      "poster_url": "https://phim.nguonc.com/public/images/Post/4/cuu-duong-vo-than-1.jpg",
      "created": "2025-11-22T05:21:40.000000Z",
      "modified": "2026-02-17T17:10:11.000000Z",
      "description": "Mọi thứ bắt đầu từ anh chàng Diệp Vân Phi từ kiếp trước, kịch bản quen thuộc là bỗng dưng bị mất hết tu vi hay là võ mạch, mất khả năng tu luyện, rồi bị hôn thê từ hôn, gia tộc thì coi thường, bằng hữu xung quanh đè ép đến cùng cực, thế rồi vận mệnh chưa hoàn toàn quay lưng lại với cậu, Tử THanh Chân Quân đã gặp gỡ và thu nhận Diệp Vân Phi làm đồ đệ, đưa cậu trở thành một vị Thiên Đế trẻ tuổi bậc nhất, nhưng trong thời khắc độ kiếp quan trọng nhất thì cậu lại bị sát hại và tái sinh về thời điểm và võ mạch đang bị phong bế, người thân vẫn còn đầy đủ, người yêu chưa rời bỏ, phụ thân thì vẫn còn sống. May mắn thay, nhờ có chút đế hồn còn sót lại nên những ký ức được lưu lại và nhờ đó mà anh chàng đã có thể tu luyện rất nhanh chóng, khẳng định bản thân và đưa gia tộc của mình trở lại hưng thịnh như thời kỳ đỉnh cao. Tuy nhiên quy luật giang hồ xưa nay vẫn luôn bất biến, muốn đứng vững thì phải ngày càng phải trở nên mạnh mẽ hơn, chưa kể những bọn giặc ngoại xâm đang ngày đêm tiến đánh đất nước và quê hương, buộc anh chàng Diệp Vân Phi phải rời xa quê hương để có thể rèn luyện, bước lên những đỉnh cao mới của võ đạo, dẫn dắt mọi người chiến đấu với giặc xâm lăng để bảo vệ đất nước, sống với đúng những năng lượng và nhiệt huyết sôi sục của tuổi trẻ.",
      "total_episodes": 20,
      "current_episode": "Tập 16",
      "time": "20 phút/tập",
      "quality": "HD",
      "language": "Vietsub",
      "director": null,
      "casts": null
    },
    {
      "name": "Có Một Cô Gái Dễ Thương Trong Tổ Đội Anh Hùng, Nên Tôi Thử Tỏ Tình",
      "slug": "co-mot-co-gai-de-thuong-trong-to-doi-anh-hung-nen-toi-thu-to-tinh",
      "original_name": "Yuusha Party ni Kawaii Ko ga Ita node, Kokuhaku shitemita., There was a Cute Girl in the Hero's Party, so I Tried Confessing to Her, There was a Cute Girl in the Hero's Party so I tried Confessing",
      "thumb_url": "https://phim.nguonc.com/public/images/Post/2/yuusha-party-ni-kawaii-ko-ga-ita-node-kokuhaku-shitemita.jpg",
      "poster_url": "https://phim.nguonc.com/public/images/Post/2/yuusha-party-ni-kawaii-ko-ga-ita-node-kokuhaku-shitemita-1.jpg",
      "created": "2026-01-06T15:28:50.000000Z",
      "modified": "2026-02-17T17:09:41.000000Z",
      "description": "Nhân vật chính là Youki, một thành viên thuộc quân đoàn Ma vương. Trong một trận chiến với Tổ đội Anh hùng, anh đã trúng \"tiếng sét ái tình\" với một nữ tu xinh đẹp trong nhóm đối thủ. Thay vì chiến đấu, Youki quyết định tỏ tình ngay trên chiến trường, dẫn đến những tình huống dở khóc dở cười và làm thay đổi cục diện cuộc chiến giữa người và ma.",
      "total_episodes": 12,
      "current_episode": "Tập 7",
      "time": "23 phút/tập",
      "quality": "HD",
      "language": "Vietsub",
      "director": "Aizawa Ryou, Mine Tomonori",
      "casts": null
    },
    {
      "name": "Võ Thần Chúa Tể",
      "slug": "vo-than-chua-te",
      "original_name": "Martial Master, Wu Shen Zhu Zai, Wushen Zhuzai, The God of War Dominates",
      "thumb_url": "https://phim.nguonc.com/public/images/Film/107609.jpg",
      "poster_url": "https://phim.nguonc.com/public/images/Film/107609.jpg",
      "created": "2023-07-18T14:41:24.000000Z",
      "modified": "2026-02-17T17:09:28.000000Z",
      "description": "Nhân vật chính Tần Trần, vốn là quân khu đứng đầu thiên tài, bị người âm mưu rơi vào đại lục cấm địa trong hẻm núi tử thần. Qin Chen, người không thể tránh khỏi cái chết, không ngờ lại kích hoạt sức mạnh của thanh kiếm cổ bí ẩn.",
      "total_episodes": 779,
      "current_episode": "Tập 632",
      "time": null,
      "quality": "HD",
      "language": "Vietsub",
      "director": null,
      "casts": null
    },
    {
      "name": "Còn Ra Thể Thống Gì Nữa?",
      "slug": "con-ra-the-thong-gi-nua",
      "original_name": "How Dare You!？",
      "thumb_url": "https://phim.nguonc.com/public/images/Post/2/con-ra-the-thong-gi-nua.jpg",
      "poster_url": "https://phim.nguonc.com/public/images/Post/2/con-ra-the-thong-gi-nua-1.jpg",
      "created": "2026-02-05T05:41:32.000000Z",
      "modified": "2026-02-17T17:09:18.000000Z",
      "description": "“Còn Ra Thể Thống Gì Nữa” là bộ phim cổ trang xuyên không pha yếu tố quyền mưu và hài hước nhẹ, do iQIYI sản xuất, với sự tham gia của Vương Sở Nhiên (\"Thanh Bình Nhạc\", \"Ngọc Cốt Dao\") và Thừa Lôi (\"Vân Chi Vũ\", \"Nhan Tâm Ký\"), chuyển thể từ tiểu thuyết cùng tên của tác giả Thất Anh Tuấn. Vương Thúy Hoa - một \"gà mờ\" nơi công sở, bất ngờ xuyên vào tiểu thuyết, gặp được Trương Tam - một kẻ xuyên không khác. Một bên là cô gái non nớt quyết đấu tranh thay đổi số phận, một bên là bạo chúa ẩn mình suốt chục năm chờ thời. Hai người cùng nắm trong tay \"kịch bản\", bắt tay lập mưu để tồn tại, phát hiện nữ phụ Tạ Vĩnh Nhi thực chất là người xuyên sách từ không gian thấp hơn. Họ cùng nhau chuẩn bị cây chống hạn trước thiên tai, chiêu mộ nhân tài, ổn định biên cương, thu phục Tạ Vĩnh Nhi và đánh bại Đoan Vương. Khi chiến thắng gần kề, Hạ Hầu Đạm (Trương Tam) lại ngã bệnh vì chứng đau đầu kinh niên. Lúc này, Dữu Vãn Âm (Vương Thúy Hoa) mới biết lời tiên đoán của ẩn sĩ vô danh: chỉ một trong hai có thể sống. Và Hạ Hầu Đạm đã bỏ lỡ cơ hội giết cô để tự cứu mình. Giờ đây, Dữu Vãn Âm cũng lựa chọn như vậy - cô muốn anh sống... Khi nữ tử sứ nước Khương (vốn yếu thế) ám toán Hạ Hầu Đạm bằng độc, chính chất độc ấy lại trở thành thuốc chữa, giải cứu mạng sống của anh. Cuối cùng, cả hai cùng sống sót, chứng kiến thái bình thịnh trị mà họ đã dốc sức gây dựng bao năm.",
      "total_episodes": 32,
      "current_episode": "Tập 27",
      "time": "45 Phút/Tập",
      "quality": "HD",
      "language": "Vietsub + Thuyết Minh",
      "director": "Lưu Hải Ba",
      "casts": "Vương Sở Nhiên, Thừa Lỗi, Đường Hiểu Thiên, Hồ Ý Hoàn"
    }
  ]
}
