{
  "status": "success",
  "paginate": {
    "current_page": 1,
    "total_page": 707,
    "total_items": 7062,
    "items_per_page": 10
  },
  "cat": {
    "name": "Hành Động",
    "title": "Hành Động",
    "slug": "hanh-dong"
  },
  "items": [
    {
      "name": "Trái Tim Của Yiwha: Tình Yêu Và Báo Thù",
      "slug": "trai-tim-cua-yiwha-tinh-yeu-va-bao-thu",
      "original_name": "The Heart Of Yiwha: Of Love & Vengeance",
      "thumb_url": "https://phim.nguonc.com/public/images/Post/5/trai-tim-cua-yiwha-tinh-yeu-va-bao-thu.jpg",
      "poster_url": "https://phim.nguonc.com/public/images/Post/5/trai-tim-cua-yiwha-tinh-yeu-va-bao-thu-1.jpg",
      "created": "2026-01-14T03:20:27.000000Z",
      "modified": "2026-02-17T17:12:20.000000Z",
      "description": "Sau khi bọn cướp sát hại cả gia đình, chiến binh trẻ tuổi nọ tìm cách trả thù bằng hắc thuật – nhưng rồi cô con gái quyến rũ của kẻ thù lại khiến hành trình ấy trở nên rối rắm.",
      "total_episodes": 23,
      "current_episode": "Tập 12",
      "time": "57 phút/tập",
      "quality": "HD",
      "language": "Vietsub",
      "director": null,
      "casts": "Nawasch Phupantachsee, Amanda Chalisa Obdam, Chanathip Phothongkam"
    },
    {
      "name": "Cửu Dương Võ Thần",
      "slug": "cuu-duong-vo-than",
      "original_name": "Ascendants of the Nine Suns",
      "thumb_url": "https://phim.nguonc.com/public/images/Post/4/cuu-duong-vo-than.jpg",
      "poster_url": "https://phim.nguonc.com/public/images/Post/4/cuu-duong-vo-than-1.jpg",
      "created": "2025-11-22T05:21:40.000000Z",
      "modified": "2026-02-17T17:10:11.000000Z",
      "description": "Mọi thứ bắt đầu từ anh chàng Diệp Vân Phi từ kiếp trước, kịch bản quen thuộc là bỗng dưng bị mất hết tu vi hay là võ mạch, mất khả năng tu luyện, rồi bị hôn thê từ hôn, gia tộc thì coi thường, bằng hữu xung quanh đè ép đến cùng cực, thế rồi vận mệnh chưa hoàn toàn quay lưng lại với cậu, Tử THanh Chân Quân đã gặp gỡ và thu nhận Diệp Vân Phi làm đồ đệ, đưa cậu trở thành một vị Thiên Đế trẻ tuổi bậc nhất, nhưng trong thời khắc độ kiếp quan trọng nhất thì cậu lại bị sát hại và tái sinh về thời điểm và võ mạch đang bị phong bế, người thân vẫn còn đầy đủ, người yêu chưa rời bỏ, phụ thân thì vẫn còn sống. May mắn thay, nhờ có chút đế hồn còn sót lại nên những ký ức được lưu lại và nhờ đó mà anh chàng đã có thể tu luyện rất nhanh chóng, khẳng định bản thân và đưa gia tộc của mình trở lại hưng thịnh như thời kỳ đỉnh cao. Tuy nhiên quy luật giang hồ xưa nay vẫn luôn bất biến, muốn đứng vững thì phải ngày càng phải trở nên mạnh mẽ hơn, chưa kể những bọn giặc ngoại xâm đang ngày đêm tiến đánh đất nước và quê hương, buộc anh chàng Diệp Vân Phi phải rời xa quê hương để có thể rèn luyện, bước lên những đỉnh cao mới của võ đạo, dẫn dắt mọi người chiến đấu với giặc xâm lăng để bảo vệ đất nước, sống với đúng những năng lượng và nhiệt huyết sôi sục của tuổi trẻ.",
      "total_episodes": 20,
      "current_episode": "Tập 16",
      "time": "20 phút/tập",
      "quality": "HD",
      "language": "Vietsub",
      "director": null,
      "casts": null
    },
    {
      "name": "Võ Thần Chúa Tể",
      "slug": "vo-than-chua-te",
      "original_name": "Martial Master, Wu Shen Zhu Zai, Wushen Zhuzai, The God of War Dominates",
      "thumb_url": "https://phim.nguonc.com/public/images/Film/107609.jpg",
      "poster_url": "https://phim.nguonc.com/public/images/Film/107609.jpg",
      "created": "2023-07-18T14:41:24.000000Z",
      "modified": "2026-02-17T17:09:28.000000Z",
      "description": "Nhân vật chính Tần Trần, vốn là quân khu đứng đầu thiên tài, bị người âm mưu rơi vào đại lục cấm địa trong hẻm núi tử thần. Qin Chen, người không thể tránh khỏi cái chết, không ngờ lại kích hoạt sức mạnh của thanh kiếm cổ bí ẩn.",
      "total_episodes": 779,
      "current_episode": "Tập 632",
      "time": null,
      "quality": "HD",
      "language": "Vietsub",
      "director": null,
      "casts": null
    },
    {
      "name": "Vạn Giới Độc Tôn",
      "slug": "van-gioi-doc-ton",
      "original_name": "Ten Thousand Worlds, Wan Jie Du Zun",
      "thumb_url": "https://phim.nguonc.com/public/images/Film/127040.jpg",
      "poster_url": "https://phim.nguonc.com/public/images/Film/127040.jpg",
      "created": "2023-07-18T14:41:31.000000Z",
      "modified": "2026-02-17T17:08:15.000000Z",
      "description": "Nam nhi vô độc bất trượng phu, bá đạo hoành hành thiên hạ phục! Đã tu độc nói, tiện lợi độc hại vạn giới, chém hết nghịch ta người! Đương tiêu dễ một lần nữa trợn mắt kia một khắc, phát hiện chính mình thế nhưng thành Phương gia bị cầm tù tới cửa con rể, càng là tân hôn thê tử tự mình đem hắn đưa vào nhà tù…",
      "total_episodes": 498,
      "current_episode": "Tập 423",
      "time": null,
      "quality": "HD",
      "language": "Vietsub",
      "director": null,
      "casts": null
    },
    {
      "name": "Võ Hồn Đại Lục",
      "slug": "vo-hon-dai-luc",
      "original_name": "Spirit Continent",
      "thumb_url": "https://phim.nguonc.com/public/images/Post/6/vo-hon-dai-luc.jpg",
      "poster_url": "https://phim.nguonc.com/public/images/Post/6/vo-hon-dai-luc-1.jpg",
      "created": "2025-09-21T04:43:43.000000Z",
      "modified": "2026-02-17T17:07:52.000000Z",
      "description": "Nhà khoa học Sở Phong vô tình có được “Kim Ô Lệnh” từ một thiên thạch rơi xuống. Để tìm hiểu nguồn gốc của nó, Sở Phong đã sáng tạo ra siêu máy tính “Khởi Nguyên”. Với sự trợ giúp của Khởi Nguyên, Sở Phong biết được Kim Ô Lệnh đến từ một thế giới thần bí gọi là đại lục Võ Hồn. Cũng chính lúc này, Sở Phong bất ngờ kích hoạt sức mạnh của Kim Ô Lệnh và bị dịch chuyển đến đại lục Võ Hồn.",
      "total_episodes": 48,
      "current_episode": "Hoàn tất (48/48)",
      "time": "10 Phút/Tập",
      "quality": "HD",
      "language": "Vietsub",
      "director": null,
      "casts": null
    },
    {
      "name": "Tuyệt Thế Chiến Hồn 3D",
      "slug": "tuyet-the-chien-hon-3d",
      "original_name": "Peerless Soul 3D",
      "thumb_url": "https://phim.nguonc.com/public/images/Film/tuyet-the-chien-hon-3d-250x350.jpeg",
      "poster_url": "https://phim.nguonc.com/public/images/Film/tuyet-the-chien-hon-3d-250x350.jpeg",
      "created": "2024-04-27T06:56:26.000000Z",
      "modified": "2026-02-17T17:07:19.000000Z",
      "description": "Đại lục Thương Lam là nơi nếu muốn thành võ giả thì bắt buộc phải thức tỉnh được võ hồn, từ đó kết nối với trời đất, hấp thụ linh khí, tiến hành tu luyện. Thiếu niên bình thường Tần Nam thức tỉnh được Chiến Thần Chi Hồn để không ngừng trở nên mạnh, để báo đáp ơn tri ngộ của Tiêu Khinh Tuyết, đã trải qua bao trắc trở, bị cuốn vào những cuộc tranh đấu khốc liệt, cuối cùng danh chấn Thương Lam, đứng trên vạn người.",
      "total_episodes": 170,
      "current_episode": "Tập 163",
      "time": null,
      "quality": "HD",
      "language": "Vietsub",
      "director": null,
      "casts": null
    },
    {
      "name": "Tu Tiên Giả Đại Chiến Siêu Năng Lực 3D",
      "slug": "tu-tien-gia-dai-chien-sieu-nang-luc-3d",
      "original_name": "Cultivator vs. Superpower 3D",
      "thumb_url": "https://phim.nguonc.com/public/images/Post/4/tu-tien-gia-dai-chien-sieu-nang-luc-3d.jpg",
      "poster_url": "https://phim.nguonc.com/public/images/Post/4/tu-tien-gia-dai-chien-sieu-nang-luc-3d-1.jpg",
      "created": "2026-02-14T06:06:57.000000Z",
      "modified": "2026-02-17T17:06:34.000000Z",
      "description": "Thuở trước, Nham Sâm là cường giả đứng đầu tu hành giới, uy danh lẫy lừng khiến bao kẻ tà tâm phải kiêng sợ. Biến cố ập xuống, tông môn bị tận diệt, máu chảy thành dòng. Ôm mối hận khắc cốt, Nham Sâm lao vào cuộc truy sát sinh tử, nhưng sơ suất giữa vòng vây, bị liên thủ trấn áp, khóa chặt trong phong ấn dài đằng đẵng. Những tưởng như đã vĩnh viễn chìm vào hư vô, Nham Sâm lại mở mắt ở một chiều không gian khác. Nơi ấy, con người bẩm sinh mang những khả năng dị thường, được gọi là tu tiên giả, thường xuyên đối đầu sinh vật quái dị để giữ gìn trật tự thế giới, cũng là mang đến sự phồn vinh cho con người.",
      "total_episodes": 40,
      "current_episode": "Tập 7",
      "time": "23 phút/tập",
      "quality": "HD",
      "language": "Vietsub",
      "director": null,
      "casts": null
    },
    {
      "name": "Luyện Khí Mười Vạn Năm",
      "slug": "luyen-khi-muoi-van-nam",
      "original_name": "Lian Qi Shi Wan Nian, One Hundred Thousand Years of Qi Training",
      "thumb_url": "https://phim.nguonc.com/public/images/Film/133308.jpg",
      "poster_url": "https://phim.nguonc.com/public/images/Film/133308.jpg",
      "created": "2023-07-18T14:41:53.000000Z",
      "modified": "2026-02-17T17:05:31.000000Z",
      "description": "Mười vạn năm trước Thiên Lam Tông vang dội giới tu chân, đệ tử trong tông đều là những đứa con của trời, đánh đâu thắng đó. Chỉ có khai sơn đệ tử Từ Dương vẫn luôn ở Luyện Khí kỳ, để đột phá tu vi sớm ngày phi thăng, Từ Dương bế quan vạn năm. Ai ngờ trong thời gian bế quan giới tu chân đã xuống dốc, Thiên Lam Tông cũng chỉ còn vài ba đệ tử, thấy sắp phải đối mặt với diệt tông, Từ Dương đánh bại cường địch, thề sẽ dẫn dắt Thiên Lam Tông quay về đỉnh cao!",
      "total_episodes": 360,
      "current_episode": "Tập 321",
      "time": null,
      "quality": "HD",
      "language": "Vietsub",
      "director": null,
      "casts": null
    },
    {
      "name": "Hiệp Sĩ Của Bảy Vương Quốc",
      "slug": "hiep-si-cua-bay-vuong-quoc",
      "original_name": "A Knight of the Seven Kingdoms",
      "thumb_url": "https://phim.nguonc.com/public/images/Post/7/hiep-si-cua-bay-vuong-quoc.jpg",
      "poster_url": "https://phim.nguonc.com/public/images/Post/7/hiep-si-cua-bay-vuong-quoc-1.jpg",
      "created": "2026-01-19T11:18:48.000000Z",
      "modified": "2026-02-17T01:29:21.000000Z",
      "description": "Một thế kỷ trước Trò Chơi Vương Quyền, hiệp sĩ Ser Duncan the Tall và người hầu Egg chu du khắp Westeros, dưới triều Targaryen khi rồng còn tồn tại. Đôi bạn thân đối mặt với những vận mệnh vĩ đại và kẻ thù hiểm ác.",
      "total_episodes": 6,
      "current_episode": "Tập 5",
      "time": "43 Phút/Tập",
      "quality": "HD",
      "language": "Vietsub",
      "director": "Owen Harris",
      "casts": "Peter Claffey, Dexter Sol Ansell, Daniel Ings"
    },
    {
      "name": "Bách Luyện Thành Thần",
      "slug": "bach-luyen-thanh-than",
      "original_name": "Bai Lian Cheng Shen, Apotheosis",
      "thumb_url": "https://phim.nguonc.com/public/images/Film/64117.jpg",
      "poster_url": "https://phim.nguonc.com/public/images/Film/64117.jpg",
      "created": "2023-07-18T14:37:14.000000Z",
      "modified": "2026-02-17T01:20:37.000000Z",
      "description": "La Chinh, hiện là một nô lệ tầm thường, từng là thiếu gia của một gia đình lớn, do gia đình sa sút, em gái anh bị một thế lực mạnh giam cầm, anh không còn cách nào khác ngoài việc phục vụ người khác.",
      "total_episodes": 150,
      "current_episode": "Tập 116",
      "time": null,
      "quality": "HD",
      "language": "Vietsub",
      "director": null,
      "casts": null
    }
  ]
}
